…
``` r
aggregate_df = 
  homicides_df %>% 
  group_by(city_state) %>% 
  summarize(
    hom_total = n(),
    hom_unsolved = sum(resolved == "unsolved")
  )
aggregate_df
```

    ## # A tibble: 50 × 3
    ##    city_state     hom_total hom_unsolved
    ##    <chr>              <int>        <int>
    ##  1 Albuquerque_NM       378          146
    ##  2 Atlanta_GA           973          373
    ##  3 Baltimore_MD        2827         1825
    ##  4 Baton Rouge_LA       424          196
    ##  5 Birmingham_AL        800          347
    ##  6 Boston_MA            614          310
    ##  7 Buffalo_NY           521          319
    ##  8 Charlotte_NC         687          206
    ##  9 Chicago_IL          5535         4073
    ## 10 Cincinnati_OH        694          309
    ## # … with 40 more rows
…
path_df = 
path_df %>%
janitor::clean_names() %>%
separate(path, into = c("Data", "lda_data", "path"), sep ="/") %>%
separate(path, into = c("control_arm", "subject_ID"), sep ="_") %>%
  mutate(subject_ID = str_replace(subject_ID, ".csv", "")) %>%
  select(-Data, -lda_data) %>%
    pivot_longer(
    week_1:week_8,
    names_to = "week", 
    values_to = "value")
path_df
```

    ## # A tibble: 160 × 4
    ##    control_arm subject_ID week   value
    ##    <chr>       <chr>      <chr>  <dbl>
    ##  1 con         01         week_1  0.2 
    ##  2 con         01         week_2 -1.31
    ##  3 con         01         week_3  0.66
    ##  4 con         01         week_4  1.96
    ##  5 con         01         week_5  0.23
    ##  6 con         01         week_6  1.09
    ##  7 con         01         week_7  0.05
    ##  8 con         01         week_8  1.94
    ##  9 con         02         week_1  1.13
    ## 10 con         02         week_2 -0.88
    ## # … with 150 more rows
…
## Problem 3

``` r
## loading the data set
library(tidyverse)

set.seed(10)

iris_with_missing = iris %>% 
  map_df(~replace(.x, sample(1:150, 20), NA)) %>%
  mutate(Species = as.character(Species))
iris_with_missing
```

    ## # A tibble: 150 × 5
    ##    Sepal.Length Sepal.Width Petal.Length Petal.Width Species
    ##           <dbl>       <dbl>        <dbl>       <dbl> <chr>  
    ##  1          5.1         3.5          1.4         0.2 setosa 
    ##  2          4.9         3            1.4         0.2 setosa 
    ##  3          4.7         3.2          1.3         0.2 setosa 
    ##  4          4.6         3.1          1.5        NA   setosa 
    ##  5          5           3.6          1.4         0.2 setosa 
    ##  6          5.4         3.9          1.7         0.4 setosa 
    ##  7         NA           3.4          1.4         0.3 setosa 
    ##  8          5           3.4          1.5         0.2 setosa 
    ##  9          4.4         2.9          1.4         0.2 setosa 
    ## 10          4.9         3.1         NA           0.1 setosa 
    ## # … with 140 more rows
…
missing_value = function(x) {
   if (is.numeric(x)) {
     replace_na(x, round(mean(x,na.rm = TRUE), digits = 1))
   }
  else if(is.character(x)){
    replace_na(x,"virginica")
  }
} 

map_dfr(iris_with_missing, missing_value)
```

    ## # A tibble: 150 × 5
    ##    Sepal.Length Sepal.Width Petal.Length Petal.Width Species
    ##           <dbl>       <dbl>        <dbl>       <dbl> <chr>  
    ##  1          5.1         3.5          1.4         0.2 setosa 
    ##  2          4.9         3            1.4         0.2 setosa 
    ##  3          4.7         3.2          1.3         0.2 setosa 
    ##  4          4.6         3.1          1.5         1.2 setosa 
    ##  5          5           3.6          1.4         0.2 setosa 
    ##  6          5.4         3.9          1.7         0.4 setosa 
    ##  7          5.8         3.4          1.4         0.3 setosa 
    ##  8          5           3.4          1.5         0.2 setosa 
    ##  9          4.4         2.9          1.4         0.2 setosa 
    ## 10          4.9         3.1          3.8         0.1 setosa 
    ## # … with 140 more rows
